Data-Centric Engineering
…
Code

n_draws = 1000; n_chains = 4; sampler = NUTS()

NUTS{Turing.Essential.ForwardDiffAD{0}, (), AdvancedHMC.DiagEuclideanMetric}(-1, 0.65, 10, 1000.0, 0.0)

Code

posterior_df = yield_model(yield_strength = strength_df.yield) |>
    x -> sample(x, sampler, MCMCThreads(), n_draws, n_chains) |>
    x -> DataFrame(x) |>
    x -> @select(x, :chain, :iteration, :σ, :μ)

4000×4 DataFrame
  Row │ chain  iteration  σ         μ
      │ Int64  Int64      Float64   Float64
──────┼─────────────────────────────────────
    1 │     1        501   5.16569  350.212
    2 │     1        502   5.46024  335.426
    3 │     1        503  11.2578   333.674
    4 │     1        504   8.29888  334.964
    5 │     1        505  25.6776   320.827
    6 │     1        506  24.3071   322.711
    7 │     1        507   1.11412  341.743
    8 │     1        508   1.11412  341.743
  ⋮   │   ⋮        ⋮         ⋮         ⋮
 3994 │     4       1494  18.9698   342.933
 3995 │     4       1495   4.68993  350.966
 3996 │     4       1496   4.68993  350.966
 3997 │     4       1497   5.47957  344.202
 3998 │     4       1498  10.4548   342.333
 3999 │     4       1499  25.649    340.847
 4000 │     4       1500  11.593    330.925
                           3985 rows omitted
…
  prepost_df = DataFrame(strat_opt = Int[], exp_cost = Float64[])
  
  for i in 1:size(expected_costs)[1]
      append!(prepost_df, 
              DataFrame(strat_opt = argmin(expected_costs[i, :]),
                        exp_cost = minimum(expected_costs[i, :])))
  end
  
  return(prepost_df)
end

100000×2 DataFrame
    Row │ strat_opt  exp_cost
        │ Int64      Float64
────────┼──────────────────────
      1 │         6  2.89427e9
      2 │         6  4.99741e9
      3 │         6  3.67811e9
      4 │         6  3.20859e9
      5 │         6  4.4217e9
      6 │         6  3.60653e9
      7 │         5  3.19492e9
      8 │         6  3.7343e9
   ⋮    │     ⋮          ⋮
  99994 │         6  3.78243e9
  99995 │         5  3.28909e9
  99996 │         6  4.31482e9
  99997 │         6  4.99683e9
  99998 │         6  2.86975e9
  99999 │         6  4.40865e9
 100000 │         5  3.29687e9
             99985 rows omitted
…
